{
  "project_info": {
    "project_number": "677063643206",
    "firebase_url": "https://caloriefind.firebaseio.com",
    "project_id": "caloriefind",
    "storage_bucket": "caloriefind.appspot.com"
  },
  "client": [
    {
      "client_info": {
        "mobilesdk_app_id": "1:677063643206:android:a488f37d4f76563c",
        "android_client_info": {
          "package_name": "yh.mobilizbiz.ios.KacKalori3"
        }
      },
      "oauth_client": [
        {
          "client_id": "677063643206-6s9000ghk59td9jdi2g2keslji4alb9v.apps.googleusercontent.com",
          "client_type": 3
        }
      ],
      "api_key": [
        {
          "current_key": "AIzaSyAsT-iDjPODwKU0R5ALoFqPh5891CcLbqs"
        }
      ],
      "services": {
        "analytics_service": {
          "status": 1
        },
        "appinvite_service": {
          "status": 1,
          "other_platform_oauth_client": []
        },
        "ads_service": {
          "status": 2
        }
      }
    }
  ],
  "configuration_version": "1"
}